{ [ValidationError: Ride validation failed]
  message: 'Ride validation failed',
  name: 'ValidationError',
  errors:
   { 'riders.0.rider_id':
      { [CastError: Cast to ObjectID failed for value "564b5c9863024477617f74fe,564b5ced63024477617f7500,564d6920e050c45003c963de" at path "rider_id"]
        message: 'Cast to ObjectID failed for value "564b5c9863024477617f74fe,564b5ced63024477617f7500,564d6920e050c45003c963de" at path "rider_id"',
        name: 'CastError',
        kind: 'ObjectID',
        value: [Object],
        path: 'rider_id',
        reason: undefined } } }
		
		
		
		
